{
  "photos": {
    "page": 1,
    "pages": 16198,
    "perpage": 100,
    "total": 1619723,
    "photo": [
      {
        "id": "44710821501",
        "owner": "106680245@N07",
        "secret": "579ee86438",
        "server": "1866",
        "farm": 2,
        "title": "Spanish combat helicopter",
        "ispublic": 1,
        "isfriend": 0,
        "isfamily": 0
      }
    ]
  },
  "stat": "ok"
}